Chapter 23 Forecast | MachineMetrics
…
tdata <- tibble(Day = day,
                mob = data$mob,
                cases = data$cases)

toronto <- tdata %>%
  as_tsibble(index = Day)

toronto

## # A tsibble: 266 x 3 [1D]
##    Day             mob cases
##    <date>        <dbl> <dbl>
##  1 2020-03-01 -0.0172      4
##  2 2020-03-02 -0.0320      6
##  3 2020-03-03 -0.0119     10
##  4 2020-03-04  0.0186      7
##  5 2020-03-05  0.0223      7
##  6 2020-03-06 -0.00626    10
##  7 2020-03-07  0.0261      8
##  8 2020-03-08  0.0273     10
##  9 2020-03-09 -0.0158     18
## 10 2020-03-10 -0.0521     29
## # ℹ 256 more rows
…
load("toronto2.rds")
day <- seq.Date(
  from = as.Date("2020/03/01"),
  to = as.Date("2020/11/21"),
  by = 1
)

tdata <- tibble(Day = day, data[, -1])
toronto2 <- tdata %>%
  as_tsibble(index = Day)
toronto2

## # A tsibble: 266 x 8 [1D]
##    Day        cases      mob delay  male   age  temp   hum
##    <date>     <dbl>    <dbl> <dbl> <dbl> <dbl> <dbl> <dbl>
##  1 2020-03-01     4 -0.0172  36.8  0.75   55   -4.2   65.5
##  2 2020-03-02     6 -0.0320   8.5  1      45    3.8   84  
##  3 2020-03-03    10 -0.0119  15    0.7    54    2.3   90  
##  4 2020-03-04     7  0.0186  25.7  0.286  50    3.35  71  
##  5 2020-03-05     7  0.0223  21    0.429  48.6  1.2   63.5
##  6 2020-03-06    10 -0.00626 13.1  0.5    36    0.04  75  
##  7 2020-03-07     8  0.0261  10.4  0.5    46.2 -1.65  54  
##  8 2020-03-08    10  0.0273  11.6  0.9    50    6.3   56  
##  9 2020-03-09    18 -0.0158   8.89 0.611  35.6 12.5   55  
## 10 2020-03-10    29 -0.0521   9.69 0.448  41.7  5.15  79  
## # ℹ 256 more rows
…
